-------------------------------------------------------------------------------
Test set: com.sp.model.TransactionTest
-------------------------------------------------------------------------------
Tests run: 2, Failures: 0, Errors: 0, Skipped: 0, Time elapsed: 0.04 s - in com.sp.model.TransactionTest
